…
对于匹配不上的内容，我们可以使用 [`readr::parse_factor()`](https://readr.tidyverse.org/reference/parse_factor.html) 替换 `factor()` 使其强制报错。

而 `levels` 的省略则会使 levels 参数设置成因子化的向量本身。

## 对 gss_cat 数据集研究

接下来我们将重点研究 [`forcats::gss_cat`](https://forcats.tidyverse.org/reference/gss_cat.html) 数据集。这是一份来自 [一般性社会调查](http://gss.norc.org/) 的数据样本，是由芝加哥大学独立研究机构 NORC 进行的一项长期的美国调查。该调查包含了数千个问题，因此我们将选择几个问题，用于说明我们在处理因子时可能会遇到的一些常见挑战。


```r
gss_cat
#> # A tibble: 21,483 × 9
#>     year marital         age race  rincome        partyid    relig denom tvhours
#>    <int> <fct>         <int> <fct> <fct>          <fct>      <fct> <fct>   <int>
#>  1  2000 Never married    26 White $8000 to 9999  Ind,near … Prot… Sout…      12
#>  2  2000 Divorced         48 White $8000 to 9999  Not str r… Prot… Bapt…      NA
#>  3  2000 Widowed          67 White Not applicable Independe… Prot… No d…       2
#>  4  2000 Never married    39 White Not applicable Ind,near … Orth… Not …       4
#>  5  2000 Divorced         25 White Not applicable Not str d… None  Not …       1
#>  6  2000 Married          25 White $20000 - 24999 Strong de… Prot… Sout…      NA
#>  7  2000 Never married    36 White $25000 or more Not str r… Chri… Not …       3
#>  8  2000 Divorced         44 White $7000 to 7999  Ind,near … Prot… Luth…      NA
#>  9  2000 Married          44 White $25000 or more Not str d… Prot… Other       0
#> 10  2000 Married          47 White $25000 or more Strong re… Prot… Sout…       3
#> # … with 21,473 more rows
```
…
