…
由于我们这里仅用来研究 sim1 数据集，所以这里新建函数用来提交给 sim1，方便后面 map2_dbl 处理：


```r
sim1_dist <- function(a1, a2) {
    measure_distance(c(a1, a2), sim1) # nolint
}
# 通过 mutate 新增计算得到的列 dist 并赋值回去（方差）
models <- random_models %>%
    mutate(dist = purrr::map2_dbl(a1, a2, sim1_dist))
models
#> # A tibble: 250 × 3
#>         a1     a2  dist
#>      <dbl>  <dbl> <dbl>
#>  1 -18.4   -0.699 38.6 
#>  2  36.3   -1.47  16.3 
#>  3  33.3    4.18  41.3 
#>  4  25.9   -2.63  14.2 
#>  5  32.7    0.849 22.2 
#>  6 -10.9    0.408 24.7 
#>  7   8.66  -0.362 11.4 
#>  8   0.169  1.81   5.84
#>  9  -2.40  -1.38  27.4 
#> 10  24.7   -4.64  25.3 
#> # … with 240 more rows
```
…
<img src="23-model-basics_files/figure-html/geom_point() & geom_line() with predictions-1.png" width="672" />

#### 分析残差

残差是我们的预测值与实际值之间的距离：


```r
residuals <- sim1 %>%
    # 注意这里使用的参数是 sim1，因为我们需要原始数据集才能发现残差
    add_residuals(sim1_mod) # 用法与 add_predictions() 非常相似
residuals
#> # A tibble: 30 × 3
#>        x     y    resid
#>    <int> <dbl>    <dbl>
#>  1     1  4.20 -2.07   
#>  2     1  7.51  1.24   
#>  3     1  2.13 -4.15   
#>  4     2  8.99  0.665  
#>  5     2 10.2   1.92   
#>  6     2 11.3   2.97   
#>  7     3  7.36 -3.02   
#>  8     3 10.5   0.130  
#>  9     3 10.5   0.136  
#> 10     4 12.4   0.00763
#> # … with 20 more rows
```
…
使用 “+” 来阐述变量之间的关系时，模型将独立计算每个初始数据的效应。如 y ~ x1 + x2 被转换为 y = a_0 + a_1 * x1 + a_2 * x2。

但使用 * 来阐述时，函数将结合两者的数据去初始化模型。如 y ~ x1 * x2 被转换为 y = a_0 + a_1 * x1 + a_2 * x2 + a_12 * x1 * x2。

注意一旦使用 *，所有模型的参数都会包含在模型中。“实践出真知”，我们决定尝试同时使用两个模型计算出结果去拟合原始数据并观察：


```r
grid3 <- sim3 %>%
    data_grid(x1, x2) %>% # 由于初始值有两个，这里就需要填入两个变量来产生初始数据
    # 同时从两个模型一起运算使用 gather_prediction()，相反的，我们也有 spread_prediction()
    gather_predictions(mod1, mod2) # 会在生成的 tibble 中第一列声明使用的哪个模型得到的预期数据
grid3
#> # A tibble: 80 × 4
#>    model    x1 x2     pred
#>    <chr> <int> <fct> <dbl>
#>  1 mod1      1 a      1.67
#>  2 mod1      1 b      4.56
#>  3 mod1      1 c      6.48
#>  4 mod1      1 d      4.03
#>  5 mod1      2 a      1.48
#>  6 mod1      2 b      4.37
#>  7 mod1      2 c      6.28
#>  8 mod1      2 d      3.84
#>  9 mod1      3 a      1.28
#> 10 mod1      3 b      4.17
#> # … with 70 more rows
```
…
```r
mod1 <- lm(y ~ x1 + x2, data = sim4)
mod2 <- lm(y ~ x1 * x2, data = sim4)

grid4 <- sim4 %>%
    data_grid(
        # 以 x1 / x2 的最大和最小为界限，生成包含五个数据的等差数列
        x1 = seq_range(x1, 5),
        x2 = seq_range(x2, 5)
    ) %>%
    gather_predictions(mod1, mod2) %>% # 对两个模型求取预期结果并合并
    print()
#> # A tibble: 50 × 4
#>    model    x1    x2   pred
#>    <chr> <dbl> <dbl>  <dbl>
#>  1 mod1   -1    -1    0.996
#>  2 mod1   -1    -0.5 -0.395
#>  3 mod1   -1     0   -1.79 
#>  4 mod1   -1     0.5 -3.18 
#>  5 mod1   -1     1   -4.57 
#>  6 mod1   -0.5  -1    1.91 
#>  7 mod1   -0.5  -0.5  0.516
#>  8 mod1   -0.5   0   -0.875
#>  9 mod1   -0.5   0.5 -2.27 
#> 10 mod1   -0.5   1   -3.66 
#> # … with 40 more rows
grid4
#> # A tibble: 50 × 4
#>    model    x1    x2   pred
#>    <chr> <dbl> <dbl>  <dbl>
#>  1 mod1   -1    -1    0.996
#>  2 mod1   -1    -0.5 -0.395
#>  3 mod1   -1     0   -1.79 
#>  4 mod1   -1     0.5 -3.18 
#>  5 mod1   -1     1   -4.57 
#>  6 mod1   -0.5  -1    1.91 
#>  7 mod1   -0.5  -0.5  0.516
#>  8 mod1   -0.5   0   -0.875
#>  9 mod1   -0.5   0.5 -2.27 
#> 10 mod1   -0.5   1   -3.66 
#> # … with 40 more rows
```
…
可以看到有明显的相互作用关系！为了预测 y，我们需要同时考虑 x1 和 x2 的值。

## 对 sim5（模型转换）模型研究

因为包不自带 sim5，这里我们只能自己建（恼


```r
sim5 <- tibble(
    x = seq(0, 3.5 * pi, length = 50),
    y = 4 * sin(x) + rnorm(length(x)) # 随机生成与 x 向量长度相同的向量并加上 4 倍 sin(x)
)
sim5
#> # A tibble: 50 × 2
#>        x      y
#>    <dbl>  <dbl>
#>  1 0     -0.462
#>  2 0.224  1.41 
#>  3 0.449  2.29 
#>  4 0.673  4.44 
#>  5 0.898  3.07 
#>  6 1.12   3.82 
#>  7 1.35   4.53 
#>  8 1.57   3.60 
#>  9 1.80   4.12 
#> 10 2.02   4.50 
#> # … with 40 more rows
```
…
