Chapter 18 Model building | R-Learning
…
似乎没有什么出人意料的数据，但可能值得花时间考虑，这是否表明我们的模型存在问题，或者数据中存在错误。

18.2 分析 flights 每日航班数量变化因素

按照天来看，这是一个包含 365 项的简单数据集：

daily <- flights %>%
    # 同理我们还有 make_datetime，作用是将日期各因素拼接，并返回 “日期” 格式数据
    mutate(date = make_date(year, month, day)) %>%
    group_by(date) %>%
    summarise(n = n())
daily
#> # A tibble: 365 × 2
#>    date           n
#>    <date>     <int>
#>  1 2013-01-01   842
#>  2 2013-01-02   943
#>  3 2013-01-03   914
#>  4 2013-01-04   915
#>  5 2013-01-05   720
#>  6 2013-01-06   832
#>  7 2013-01-07   933
#>  8 2013-01-08   899
#>  9 2013-01-09   902
#> 10 2013-01-10   932
#> # … with 355 more rows
…
