Chapter 15 Strings | R-Learning
…
# 求平均每个单词有几个元音
mean(str_count(words, "[aeiou]"))
#> [1] 1.991837

用的好就会非常自然：

df %>%
  mutate(
    vowels = str_count(word, "[aeiou]"),
    consonants = str_count(word, "[^aeiou]")
  )
#> # A tibble: 980 × 4
#>    word         i vowels consonants
#>    <chr>    <int>  <int>      <int>
#>  1 a            1      1          0
#>  2 able         2      2          2
#>  3 about        3      3          2
#>  4 absolute     4      4          4
#>  5 accept       5      2          4
#>  6 account      6      3          4
#>  7 achieve      7      4          3
#>  8 across       8      2          4
#>  9 act          9      1          2
#> 10 active      10      3          3
#> # … with 970 more rows
…
不出所料，我们检测名词的启发式方法很拉垮，并且还获取了像是 smooth、huge 等形容词。

如果你在自动匹配上遇到了困难，试着使用 tidyr::extract() 手动对比查看它们。它的工作方式类似于 str_match()，但需要手动命名匹配项，并将其放置在新列中：

tibble(sentence = sentences) %>%
  tidyr::extract(
    sentence, c("article", "noun"), "(a|the) ([^ ]+)",
    remove = FALSE
  )
#> # A tibble: 720 × 3
#>    sentence                                    article noun   
#>    <chr>                                       <chr>   <chr>  
#>  1 The birch canoe slid on the smooth planks.  the     smooth 
#>  2 Glue the sheet to the dark blue background. the     sheet  
#>  3 It's easy to tell the depth of a well.      the     depth  
#>  4 These days a chicken leg is a rare dish.    a       chicken
#>  5 Rice is often served in round bowls.        <NA>    <NA>   
#>  6 The juice of lemons makes fine punch.       <NA>    <NA>   
#>  7 The box was thrown beside the parked truck. the     parked 
#>  8 The hogs were fed chopped corn and garbage. <NA>    <NA>   
#>  9 Four hours of steady work faced us.         <NA>    <NA>   
#> 10 A large size in stockings is hard to sell.  <NA>    <NA>   
#> # … with 710 more rows
…
