Chapter 1 Tibbles | 10-tibbles.knit
…
Chapter 1 Tibbles

就像我们之前提到的那样，我们常常使用来自 tidyverse 的 tibbles，而不是 R 传统的 data.frame。Tibbles 是一种比 R 自带的 dataframe 更人性化更方便的数据集存储形式。

library(tidyverse)

1.1 创建 tibble

1.1.1 as_tibble()

我们使用 as_tibble() 来转化原有的 dataframe：

as_tibble(iris)
#> # A tibble: 150 x 5
#>    Sepal.Length Sepal.Width Petal.Length Petal.Width Species
#>           <dbl>       <dbl>        <dbl>       <dbl> <fct>  
#>  1          5.1         3.5          1.4         0.2 setosa 
#>  2          4.9         3            1.4         0.2 setosa 
#>  3          4.7         3.2          1.3         0.2 setosa 
#>  4          4.6         3.1          1.5         0.2 setosa 
#>  5          5           3.6          1.4         0.2 setosa 
#>  6          5.4         3.9          1.7         0.4 setosa 
#>  7          4.6         3.4          1.4         0.3 setosa 
#>  8          5           3.4          1.5         0.2 setosa 
#>  9          4.4         2.9          1.4         0.2 setosa 
#> 10          4.9         3.1          1.5         0.1 setosa 
#> # ... with 140 more rows
…
1.2 tibbles VS. data.frame

1.2.1 控制台打印方面

tibble(
  a = lubridate::now() + runif(1e3) * 86400,
  b = lubridate::today() + runif(1e3) * 30,
  c = 1:1e3,
  d = runif(1e3),
  e = sample(letters, 1e3, replace = TRUE)
)
#> # A tibble: 1,000 x 5
#>    a                   b              c     d e    
#>    <dttm>              <date>     <int> <dbl> <chr>
#>  1 2022-05-28 17:21:21 2022-06-24     1 0.591 m    
#>  2 2022-05-28 13:13:44 2022-06-03     2 0.894 n    
#>  3 2022-05-28 08:08:40 2022-06-25     3 0.567 b    
#>  4 2022-05-28 01:31:29 2022-06-07     4 0.925 f    
#>  5 2022-05-28 19:57:50 2022-06-10     5 0.832 b    
#>  6 2022-05-29 00:03:04 2022-06-19     6 0.927 n    
#>  7 2022-05-28 21:11:55 2022-06-22     7 0.239 h    
#>  8 2022-05-28 09:15:21 2022-06-06     8 0.308 t    
#>  9 2022-05-28 12:04:37 2022-06-03     9 0.904 q    
#> 10 2022-05-28 22:23:09 2022-05-30    10 0.307 q    
#> # ... with 990 more rows

tibble 对于太多的数据，只会显示前十行，不会让你的控制台被内容淹没；同时会显示每一列的数据类型。这得益于 str() 函数。

tibble 还完美兼容 print() 函数：

nycflights13::flights %>%
  print(n = 10, width = Inf) # Inf 表示无限，即所有指定内容（前十行）都打印
#> # A tibble: 336,776 x 19
#>     year month   day dep_time sched_dep_time dep_delay arr_time sched_arr_time
#>    <int> <int> <int>    <int>          <int>     <dbl>    <int>          <int>
#>  1  2013     1     1      517            515         2      830            819
#>  2  2013     1     1      533            529         4      850            830
#>  3  2013     1     1      542            540         2      923            850
#>  4  2013     1     1      544            545        -1     1004           1022
#>  5  2013     1     1      554            600        -6      812            837
#>  6  2013     1     1      554            558        -4      740            728
#>  7  2013     1     1      555            600        -5      913            854
#>  8  2013     1     1      557            600        -3      709            723
#>  9  2013     1     1      557            600        -3      838            846
#> 10  2013     1     1      558            600        -2      753            745
#>    arr_delay carrier flight tailnum origin dest  air_time distance  hour minute
#>        <dbl> <chr>    <int> <chr>   <chr>  <chr>    <dbl>    <dbl> <dbl>  <dbl>
#>  1        11 UA        1545 N14228  EWR    IAH        227     1400     5     15
#>  2        20 UA        1714 N24211  LGA    IAH        227     1416     5     29
#>  3        33 AA        1141 N619AA  JFK    MIA        160     1089     5     40
#>  4       -18 B6         725 N804JB  JFK    BQN        183     1576     5     45
#>  5       -25 DL         461 N668DN  LGA    ATL        116      762     6      0
#>  6        12 UA        1696 N39463  EWR    ORD        150      719     5     58
#>  7        19 B6         507 N516JB  EWR    FLL        158     1065     6      0
#>  8       -14 EV        5708 N829AS  LGA    IAD         53      229     6      0
#>  9        -8 B6          79 N593JB  JFK    MCO        140      944     6      0
#> 10         8 AA         301 N3ALAA  LGA    ORD        138      733     6      0
#>    time_hour          
#>    <dttm>             
#>  1 2013-01-01 05:00:00
#>  2 2013-01-01 05:00:00
#>  3 2013-01-01 05:00:00
#>  4 2013-01-01 05:00:00
#>  5 2013-01-01 06:00:00
#>  6 2013-01-01 05:00:00
#>  7 2013-01-01 06:00:00
#>  8 2013-01-01 06:00:00
#>  9 2013-01-01 06:00:00
#> 10 2013-01-01 06:00:00
#> # ... with 336,766 more rows
…
