Chapter 13 Tidy data | R-Learning
…
13.7 对 who 数据整理

who 是一个流行病统计数据集。

who
#> # A tibble: 7,240 × 60
#>    country  iso2  iso3   year new_sp_m014 new_sp_m1524 new_sp_m2534 new_sp_m3544
#>    <chr>    <chr> <chr> <int>       <int>        <int>        <int>        <int>
#>  1 Afghani… AF    AFG    1980          NA           NA           NA           NA
#>  2 Afghani… AF    AFG    1981          NA           NA           NA           NA
#>  3 Afghani… AF    AFG    1982          NA           NA           NA           NA
#>  4 Afghani… AF    AFG    1983          NA           NA           NA           NA
#>  5 Afghani… AF    AFG    1984          NA           NA           NA           NA
#>  6 Afghani… AF    AFG    1985          NA           NA           NA           NA
#>  7 Afghani… AF    AFG    1986          NA           NA           NA           NA
#>  8 Afghani… AF    AFG    1987          NA           NA           NA           NA
#>  9 Afghani… AF    AFG    1988          NA           NA           NA           NA
#> 10 Afghani… AF    AFG    1989          NA           NA           NA           NA
#> # … with 7,230 more rows, and 52 more variables: new_sp_m4554 <int>,
#> #   new_sp_m5564 <int>, new_sp_m65 <int>, new_sp_f014 <int>,
#> #   new_sp_f1524 <int>, new_sp_f2534 <int>, new_sp_f3544 <int>,
#> #   new_sp_f4554 <int>, new_sp_f5564 <int>, new_sp_f65 <int>,
#> #   new_sn_m014 <int>, new_sn_m1524 <int>, new_sn_m2534 <int>,
#> #   new_sn_m3544 <int>, new_sn_m4554 <int>, new_sn_m5564 <int>,
#> #   new_sn_m65 <int>, new_sn_f014 <int>, new_sn_f1524 <int>, …
who1 <- who %>%
    pivot_longer(
        cols = new_sp_m014:newrel_f65, # 将病症的种类转换成变量（key）
        names_to = "key",
        values_to = "cases", # 将数据转换成 cases 列
        values_drop_na = TRUE # 删除 NA 数据
    )
who1
#> # A tibble: 76,046 × 6
#>    country     iso2  iso3   year key          cases
#>    <chr>       <chr> <chr> <int> <chr>        <int>
#>  1 Afghanistan AF    AFG    1997 new_sp_m014      0
#>  2 Afghanistan AF    AFG    1997 new_sp_m1524    10
#>  3 Afghanistan AF    AFG    1997 new_sp_m2534     6
#>  4 Afghanistan AF    AFG    1997 new_sp_m3544     3
#>  5 Afghanistan AF    AFG    1997 new_sp_m4554     5
#>  6 Afghanistan AF    AFG    1997 new_sp_m5564     2
#>  7 Afghanistan AF    AFG    1997 new_sp_m65       0
#>  8 Afghanistan AF    AFG    1997 new_sp_f014      5
#>  9 Afghanistan AF    AFG    1997 new_sp_f1524    38
#> 10 Afghanistan AF    AFG    1997 new_sp_f2534    36
#> # … with 76,036 more rows
count(who1, key, sort = TRUE) # 对不同病症人数统计
#> # A tibble: 56 × 2
#>    key              n
#>    <chr>        <int>
#>  1 new_sp_m4554  3223
#>  2 new_sp_m3544  3219
#>  3 new_sp_m5564  3218
#>  4 new_sp_m1524  3209
#>  5 new_sp_m65    3209
#>  6 new_sp_m2534  3206
#>  7 new_sp_f4554  3204
#>  8 new_sp_f2534  3200
#>  9 new_sp_f3544  3199
#> 10 new_sp_f65    3197
#> # … with 46 more rows
…
4554：45 ~ 54 岁

5564：55 ~ 64岁

65：65 岁或以上

who2 <- who1 %>%
    # 使用 stringr 的 str_replace 可以进行简单的替换（当然切割时使用位置切割也可以）
    mutate(key = stringr::str_replace(key, "newrel", "new_rel")) %>%
    # 通过字符串 “_” 分割为是否包含新病例、结核病类型和性别年龄
    separate(key, c("new", "type", "sexage"), sep = "_") %>%
    # 通过位置继续分割性别和年龄
    separate(sexage, c("sex", "age"), sep = 1)
who2
#> # A tibble: 76,046 × 9
#>    country     iso2  iso3   year new   type  sex   age   cases
#>    <chr>       <chr> <chr> <int> <chr> <chr> <chr> <chr> <int>
#>  1 Afghanistan AF    AFG    1997 new   sp    m     014       0
#>  2 Afghanistan AF    AFG    1997 new   sp    m     1524     10
#>  3 Afghanistan AF    AFG    1997 new   sp    m     2534      6
#>  4 Afghanistan AF    AFG    1997 new   sp    m     3544      3
#>  5 Afghanistan AF    AFG    1997 new   sp    m     4554      5
#>  6 Afghanistan AF    AFG    1997 new   sp    m     5564      2
#>  7 Afghanistan AF    AFG    1997 new   sp    m     65        0
#>  8 Afghanistan AF    AFG    1997 new   sp    f     014       5
#>  9 Afghanistan AF    AFG    1997 new   sp    f     1524     38
#> 10 Afghanistan AF    AFG    1997 new   sp    f     2534     36
#> # … with 76,036 more rows

深度观察，我们会发现数据还有进一步的优化空间：

count(who2, new) # 可以发现这个数据集的 “是否包含新病例” 值其实全部都是 “new”，所以是不必要的数据
#> # A tibble: 1 × 2
#>   new       n
#>   <chr> <int>
#> 1 new   76046
# 同时 “iso2” 和 “iso3” 是国家缩写，也是不需要的数据
who3 <- who2 %>%
    select(-new, -iso2, -iso3)
who3
#> # A tibble: 76,046 × 6
#>    country      year type  sex   age   cases
#>    <chr>       <int> <chr> <chr> <chr> <int>
#>  1 Afghanistan  1997 sp    m     014       0
#>  2 Afghanistan  1997 sp    m     1524     10
#>  3 Afghanistan  1997 sp    m     2534      6
#>  4 Afghanistan  1997 sp    m     3544      3
#>  5 Afghanistan  1997 sp    m     4554      5
#>  6 Afghanistan  1997 sp    m     5564      2
#>  7 Afghanistan  1997 sp    m     65        0
#>  8 Afghanistan  1997 sp    f     014       5
#>  9 Afghanistan  1997 sp    f     1524     38
#> 10 Afghanistan  1997 sp    f     2534     36
#> # … with 76,036 more rows
