…
我们决定对错误进行定位：

```{R problems() of challenge, eval=FALSE}
problems(challenge)
#> # A tibble: 1,000 x 5
#>     row col   expected        actual   file
#>   <int> <chr> <chr>           <chr>    <chr>
#> 1  1001 y     1/0/T/F/TRUE/F… 2015-01… '/Users/runner/work/_temp/…
#> 2  1002 y     1/0/T/F/TRUE/F… 2018-05… '/Users/runner/work/_temp/…
#> 3  1003 y     1/0/T/F/TRUE/F… 2015-09… '/Users/runner/work/_temp/…
#> 4  1004 y     1/0/T/F/TRUE/F… 2012-11… '/Users/runner/work/_temp/…
#> 5  1005 y     1/0/T/F/TRUE/F… 2020-01… '/Users/runner/work/_temp/…
#> 6  1006 y     1/0/T/F/TRUE/F… 2016-04… '/Users/runner/work/_temp/…
#> # … with 994 more rows
```
…
