Chapter 12 Data import | R-Learning
…
我们决定对错误进行定位：

problems(challenge)
#> # A tibble: 1,000 x 5
#>     row col   expected        actual   file
#>   <int> <chr> <chr>           <chr>    <chr>
#> 1  1001 y     1/0/T/F/TRUE/F… 2015-01… '/Users/runner/work/_temp/…
#> 2  1002 y     1/0/T/F/TRUE/F… 2018-05… '/Users/runner/work/_temp/…
#> 3  1003 y     1/0/T/F/TRUE/F… 2015-09… '/Users/runner/work/_temp/…
#> 4  1004 y     1/0/T/F/TRUE/F… 2012-11… '/Users/runner/work/_temp/…
#> 5  1005 y     1/0/T/F/TRUE/F… 2020-01… '/Users/runner/work/_temp/…
#> 6  1006 y     1/0/T/F/TRUE/F… 2016-04… '/Users/runner/work/_temp/…
#> # … with 994 more rows
…
challenge2 <- read_csv(readr_example("challenge.csv"), guess_max = 1001)

## Rows: 2000 Columns: 2
## -- Column specification ------------------------------------------------------------------
## Delimiter: ","
## dbl  (1): x
## date (1): y
## 
## i Use `spec()` to retrieve the full column specification for this data.
## i Specify the column types or set `show_col_types = FALSE` to quiet this message.

challenge2

## # A tibble: 2,000 x 2
##        x y     
##    <dbl> <date>
##  1   404 NA    
##  2  4172 NA    
##  3  3004 NA    
##  4   787 NA    
##  5    37 NA    
##  6  2332 NA    
##  7  2489 NA    
##  8  1449 NA    
##  9  3665 NA    
## 10  3863 NA    
## # ... with 1,990 more rows
…
可以看到 “启发性” 转换到底转换成了什么类型。

12.8 写入数据

12.8.1 csv 格式

write_csv(challenge, "./data/challenge.csv")

很简单，不是吗？小心事情还没结束。你看，数据类型就这么丢了：

challenge

## # A tibble: 2,000 x 2
##        x y     
##    <dbl> <date>
##  1   404 NA    
##  2  4172 NA    
##  3  3004 NA    
##  4   787 NA    
##  5    37 NA    
##  6  2332 NA    
##  7  2489 NA    
##  8  1449 NA    
##  9  3665 NA    
## 10  3863 NA    
## # ... with 1,990 more rows

write_csv(challenge, "./data/challenge-2.csv")
read_csv("./data/challenge-2.csv")

## Rows: 2000 Columns: 2
## -- Column specification ------------------------------------------------------------------
## Delimiter: ","
## dbl  (1): x
## date (1): y
## 
## i Use `spec()` to retrieve the full column specification for this data.
## i Specify the column types or set `show_col_types = FALSE` to quiet this message.

## # A tibble: 2,000 x 2
##        x y     
##    <dbl> <date>
##  1   404 NA    
##  2  4172 NA    
##  3  3004 NA    
##  4   787 NA    
##  5    37 NA    
##  6  2332 NA    
##  7  2489 NA    
##  8  1449 NA    
##  9  3665 NA    
## 10  3863 NA    
## # ... with 1,990 more rows

12.8.2 rds 格式

为了解决这个问题，我们提出了新的函数：write_rds() 和 read_rds() 基于 R 的基本函数 readRDS() 和 saveRDS()。注意这些数据会以被 R 称为 RDS 格式的自定义二进制格式存储数据：

write_rds(challenge, "./data/challenge.rds")
read_rds("./data/challenge.rds")

## # A tibble: 2,000 x 2
##        x y     
##    <dbl> <date>
##  1   404 NA    
##  2  4172 NA    
##  3  3004 NA    
##  4   787 NA    
##  5    37 NA    
##  6  2332 NA    
##  7  2489 NA    
##  8  1449 NA    
##  9  3665 NA    
## 10  3863 NA    
## # ... with 1,990 more rows

表现非常好，但 rds 格式不流行也不通用。

12.8.3 feather 格式

feather 包也实现了一种快速的二进制文件格式，可以跨编程语言共享：

library(feather)

## Warning: 程辑包'feather'是用R版本4.1.3 来建造的

write_feather(challenge, "./data/challenge.feather")
read_feather("./data/challenge.feather")

## # A tibble: 2,000 x 2
##        x y     
##    <dbl> <date>
##  1   404 NA    
##  2  4172 NA    
##  3  3004 NA    
##  4   787 NA    
##  5    37 NA    
##  6  2332 NA    
##  7  2489 NA    
##  8  1449 NA    
##  9  3665 NA    
## 10  3863 NA    
## # ... with 1,990 more rows
…
